{
  "references": {
    "Glintt.Base.Hosting": {
      "reference": "Glintt.Base.Hosting",
      "nuget": "Glintt.Base.Hosting",
      "targetFramework": "net40"
    },
    "Glintths.Log.WS.Client": {
      "reference": "Glintths.Log.WS.Client",
      "nuget": "Glintths.Log.WS.Client",
      "targetFramework": "net40"
    },
    "Cpchs.Security.Providers.Utilities": {
      "reference": "Cpchs.Security.Providers.Utilities",
      "nuget": "Cpchs.Security.Providers.Utilities",
      "targetFramework": "net40"
    },
    "Glintths.Base.Internal.Interfaces": {
      "reference": "Glintths.Base.Internal.Interfaces",
      "nuget": "Glintths.Base.Internal.Interfaces",
      "targetFramework": "net40"
    },
    "CPCHS.Common.WebServices": {
      "reference": "CPCHS.Common.WebServices",
      "nuget": "CPCHS.Common.WebServices",
      "targetFramework": "net40"
    },
    "Glintths.Base.Internal.Exceptions": {
      "reference": "Glintths.Base.Internal.Exceptions",
      "nuget": "Glintths.Base.Internal.Exceptions",
      "targetFramework": "net40"
    },
    "Glintths.Base.Internal.Entities": {
      "reference": "Glintths.Base.Internal.Entities",
      "nuget": "Glintths.Base.Internal.Entities",
      "targetFramework": "net40"
    },
    "Glintths.Log.WS.Interface": {
      "reference": "Glintths.Log.WS.Interface",
      "nuget": "Glintths.Log.WS.Interface",
      "targetFramework": "net40"
    },
    "Glintths.Infrastructure.LoggingWCF": {
      "reference": "Glintths.Infrastructure.LoggingWCF",
      "nuget": "Glintths.Infrastructure.LoggingWCF",
      "targetFramework": "net40"
    },
    "Glintths.Base.Utilities": {
      "reference": "Glintths.Base.Utilities",
      "nuget": "Glintths.Base.Utilities",
      "targetFramework": "net40"
    },
    "CPCHS.Common.Utilities": {
      "reference": "CPCHS.Common.Utilities",
      "nuget": "CPCHS.Common.Utilities",
      "targetFramework": "net40"
    },
    "Glintths.Base.Linq": {
      "reference": "Glintths.Base.Linq",
      "nuget": "Glintths.Base.Linq",
      "targetFramework": "net40"
    },
    "Glintths.Base.BusinessEntities": {
      "reference": "Glintths.Base.BusinessEntities",
      "nuget": "Glintths.Base.BusinessEntities",
      "targetFramework": "net40"
    },
    "Glintths.Infrastructure.Logging": {
      "reference": "Glintths.Infrastructure.Logging",
      "nuget": "Glintths.Infrastructure.Logging",
      "targetFramework": "net40"
    },
    "Glintths.Infrastructure.LoggingDatabaseWriter": {
      "reference": "Glintths.Infrastructure.LoggingDatabaseWriter",
      "nuget": "Glintths.Infrastructure.LoggingDatabaseWriter",
      "targetFramework": "net40"
    }
  },
  "release": "master"
}
